{
  "$schema": "http://json-schema.org/draft-07/schema#",
  "description": "Policy content for pipeline_execution_schedule_policy type",
  "type": "object",
  "properties": {
    "content": {
      "description": "Specifies the content of custom configuration.",
      "type": "object",
      "properties": {
        "include": {
          "type": "array",
          "maxItems": 1,
          "minItems": 1,
          "items": {
            "type": "object",
            "properties": {
              "project": {
                "type": "string"
              },
              "file": {
                "type": "string"
              },
              "ref": {
                "type": "string"
              }
            },
            "required": [
              "project",
              "file"
            ],
            "additionalProperties": false
          }
        }
      },
      "required": [
        "include"
      ],
      "additionalProperties": false
    },
    "schedule": {
      "description": "Specifies the condition when this policy should be triggered.",
      "type": "object",
      "properties": {
        "cadence": {
          "description": "Specifies when this policy should schedule a new pipeline. Uses cron expression as a format (ie. `0 22 * * 1-5`).",
          "type": "string",
          "pattern": "(@(yearly|annually|monthly|weekly|daily|midnight|noon|hourly))|(((\\*|(\\-?\\d+\\,?)+)(\\/\\d+)?|last|L|(sun|mon|tue|wed|thu|fri|sat|SUN|MON|TUE|WED|THU|FRI|SAT\\-|\\,)+|(jan|feb|mar|apr|may|jun|jul|aug|sep|oct|nov|dec|JAN|FEB|MAR|APR|MAY|JUN|JUL|AUG|SEP|OCT|NOV|DEC|\\-|\\,)+)\\s?){5,6}"
        },
        "timezone": {
          "type": "string",
          "description": "Time zone to apply to the cadence. Value must be an IANA Time Zone Database identifier, for example: `America/New_York`."
        }
      },
      "required": [
        "cadence"
      ],
      "additionalProperties": false
    }
  },
  "additionalProperties": false
}
